* * * * * * * * * * * * * * * Reading complete, hit anykey to continue print 

Print Column in the following order: 

Duty, PD0, PE1, PD2, PD3 

refV = 3881
0,  11.56,  10.44,  3855.44,  6.31 
1,  43.25,  43.38,  3851.75,  5.69 
2,  80.56,  82.06,  3850.38,  6.44 
3,  118.25,  120.06,  3853.44,  6.31 
4,  156.00,  159.44,  3852.12,  6.00 
5,  194.38,  196.94,  3851.75,  6.75 
6,  232.88,  235.31,  3853.50,  5.94 
7,  273.19,  273.62,  3850.88,  6.75 
8,  313.75,  312.00,  3852.06,  6.12 
9,  352.00,  352.69,  3854.38,  5.81 
10,  391.62,  391.06,  3852.50,  6.94 
11,  429.94,  431.75,  3854.88,  6.06 
12,  467.38,  472.75,  3854.06,  5.62 
13,  507.12,  509.50,  3853.06,  6.62 
14,  544.56,  548.00,  3854.44,  6.38 
15,  582.75,  586.56,  3853.38,  6.31 
16,  621.81,  624.81,  3853.38,  6.75 
17,  660.81,  664.19,  3854.69,  6.19 
18,  700.62,  702.06,  3852.25,  6.94 
19,  741.12,  741.69,  3853.44,  5.81 
20,  779.50,  780.38,  3854.12,  5.81 
21,  817.81,  817.50,  3852.31,  7.38 
22,  855.81,  857.12,  3853.56,  5.94 
23,  892.69,  895.62,  3854.00,  6.19 
24,  929.81,  934.00,  3854.38,  6.56 
25,  965.75,  972.19,  3854.94,  5.69 
26,  1006.44,  1011.06,  3853.75,  6.56 
27,  1050.94,  1051.25,  3850.81,  8.88 
28,  1089.50,  1089.81,  3850.25,  11.62 
29,  1129.44,  1128.75,  3854.62,  21.31 
30,  1169.38,  1167.56,  3859.56,  40.81 
31,  1206.06,  1205.94,  3858.19,  81.75 
32,  1245.44,  1243.69,  3855.56,  167.19 
33,  1281.50,  1282.56,  3855.19,  337.19 
34,  1317.12,  1320.62,  3836.69,  654.06 
35,  1355.69,  1359.00,  3808.31,  1178.94 
36,  1396.31,  1398.50,  3766.44,  1960.25 
37,  1439.00,  1435.25,  3707.56,  2998.38 
38,  1477.56,  1475.44,  3690.75,  3304.31 
39,  1516.62,  1513.94,  3692.06,  3318.50 
40,  1557.31,  1552.62,  3691.31,  3324.00 
41,  1595.62,  1592.00,  3692.81,  3326.06 
42,  1633.19,  1629.50,  3693.00,  3328.56 
43,  1670.44,  1667.75,  3692.38,  3327.69 
44,  1706.44,  1711.44,  3694.88,  3329.00 
45,  1744.00,  1747.56,  3693.94,  3330.69 
46,  1783.12,  1784.62,  3693.88,  3329.25 
47,  1822.25,  1827.12,  3694.88,  3330.44 
48,  1863.62,  1864.25,  3693.00,  3331.06 
49,  1905.19,  1903.06,  3693.94,  3329.69 
50,  1944.44,  1940.94,  3694.25,  3331.31 
51,  1983.44,  1978.75,  3693.19,  3330.50 
52,  2022.12,  2018.25,  3695.81,  3329.50 
53,  2057.69,  2055.12,  3695.25,  3331.19 
54,  2096.19,  2102.12,  3695.38,  3330.06 
55,  2132.69,  2140.50,  3697.25,  3330.38 
56,  2171.19,  2176.31,  3695.81,  3331.88 
57,  2212.19,  2216.38,  3695.88,  3330.06 
58,  2252.69,  2253.56,  3697.38,  3331.06 
59,  2292.88,  2290.25,  3695.81,  3330.88 
60,  2332.38,  2329.69,  3696.38,  3329.12 
61,  2368.31,  2367.69,  3698.50,  3330.88 
62,  2407.00,  2405.81,  3698.19,  3329.62 
63,  2442.88,  2445.56,  3698.81,  3329.06 
64,  2482.69,  2483.19,  3699.69,  3330.38 
65,  2522.38,  2522.81,  3698.62,  3329.81 
66,  2559.06,  2562.25,  3699.69,  3330.69 
67,  2600.38,  2600.31,  3697.44,  3331.31 
68,  2641.69,  2639.75,  3696.75,  3328.88 
69,  2680.62,  2678.25,  3697.50,  3330.94 
70,  2721.12,  2715.81,  3694.44,  3330.50 
71,  2757.81,  2755.69,  3699.19,  3329.44 
72,  2794.88,  2792.88,  3704.75,  3331.50 
73,  2831.69,  2830.44,  3703.50,  3329.69 
74,  2871.50,  2870.69,  3704.50,  3331.12 
75,  2909.75,  2908.56,  3702.56,  3331.50 
76,  2949.38,  2948.19,  3701.94,  3330.50 
77,  2987.94,  2987.56,  3702.06,  3329.88 
78,  3028.44,  3024.50,  3699.81,  3330.94 
79,  3068.75,  3065.31,  3700.69,  3328.94 
80,  3106.75,  3103.38,  3701.50,  3331.12 
81,  3145.25,  3141.44,  3700.38,  3330.88 
82,  3183.31,  3181.44,  3702.12,  3329.50 
83,  3220.19,  3218.62,  3702.62,  3331.81 
84,  3259.25,  3257.19,  3702.44,  3331.94 
85,  3296.12,  3296.62,  3704.31,  3330.19 
86,  3334.06,  3333.00,  3702.62,  3330.81 
87,  3375.50,  3371.88,  3701.75,  3329.44 
88,  3413.56,  3409.81,  3702.50,  3330.19 
89,  3454.31,  3449.50,  3700.75,  3330.81 
90,  3492.75,  3491.56,  3700.50,  3329.19 
91,  3529.81,  3531.25,  3701.44,  3330.62 
92,  3570.31,  3569.81,  3702.75,  3329.81 
93,  3607.62,  3609.75,  3705.00,  3328.69 
94,  3647.12,  3646.12,  3705.06,  3329.88 
95,  3688.25,  3685.75,  3704.62,  3329.19 
96,  3725.06,  3725.56,  3707.00,  3329.75 
97,  3764.19,  3762.06,  3705.56,  3330.75 
98,  3804.56,  3802.31,  3705.00,  3329.38 
99,  3840.69,  3840.12,  3706.38,  3329.69 
100,  3862.56,  3856.19,  3707.00,  3329.56 
